…
The upward trend is dramatic — but it likely reflects improved reporting
requirements and awareness rather than an actual increase in bird
populations near airports.

## Which States Have the Most Strikes?

``` r
wildlife_impacts |>
  filter(state != "N/A") |>
  count(state, sort = TRUE)
```

    ## # A tibble: 58 × 2
    ##    state     n
    ##    <chr> <int>
    ##  1 TX     7146
    ##  2 CA     5780
    ##  3 FL     3686
    ##  4 IL     2744
    ##  5 CO     2441
    ##  6 NY     2242
    ##  7 MO     1674
    ##  8 TN     1251
    ##  9 DC     1228
    ## 10 GA     1138
    ## # ℹ 48 more rows
…
