…
    ## $us_wind
    ## # A tibble: 58,185 × 24
    ##    case_id faa_ors faa_asn usgs_pr_id t_state t_county    t_fips p_name   p_year
    ##      <dbl> <chr>   <chr>        <dbl> <chr>   <chr>       <chr>  <chr>     <dbl>
    ##  1 3073429 missing missing       4960 CA      Kern County 06029  251 Wind   1987
    ##  2 3071522 missing missing       4997 CA      Kern County 06029  251 Wind   1987
    ##  3 3073425 missing missing       4957 CA      Kern County 06029  251 Wind   1987
    ##  4 3071569 missing missing       5023 CA      Kern County 06029  251 Wind   1987
    ##  5 3005252 missing missing       5768 CA      Kern County 06029  251 Wind   1987
    ##  6 3003862 missing missing       5836 CA      Kern County 06029  251 Wind   1987
    ##  7 3073370 missing missing       4948 CA      Kern County 06029  251 Wind   1987
    ##  8 3010101 missing missing       5828 CA      Kern County 06029  251 Wind   1987
    ##  9 3073324 missing missing       4965 CA      Kern County 06029  251 Wind   1987
    ## 10 3072659 missing missing       5044 CA      Kern County 06029  251 Wind   1987
    ## # ℹ 58,175 more rows
    ## # ℹ 15 more variables: p_tnum <dbl>, p_cap <dbl>, t_manu <chr>, t_model <chr>,
    ## #   t_cap <dbl>, t_hh <dbl>, t_rd <dbl>, t_rsa <dbl>, t_ttlh <dbl>,
    ## #   t_conf_atr <dbl>, t_conf_loc <dbl>, t_img_date <chr>, t_img_srce <chr>,
    ## #   xlong <dbl>, ylat <dbl>
…
