…
## Top Revenue Games

Which individual games generated the most estimated revenue?

``` r
video_games |>
  arrange(desc(revenue)) |>
  select(game, release_date, price, owners, revenue)
```

    ## # A tibble: 26,688 × 5
    ##    game                          release_date price   owners    revenue
    ##    <chr>                         <date>       <dbl>    <dbl>      <dbl>
    ##  1 Playerunknown's Battlegrounds 2017-12-21    30.0 50000000 1499500000
    ##  2 Monster Hunter: World         2018-08-09    60.0  5000000  299950000
    ##  3 Sid Meier's Civilization V    2010-09-21    30.0 10000000  299900000
    ##  4 Grand Theft Auto V            2015-04-14    30.0 10000000  299900000
    ##  5 Ark: Survival Evolved         2017-08-27    50.0  5000000  249950000
    ##  6 Ark: Survival Of The Fittest  2017-08-29    50.0  5000000  249950000
    ##  7 Grim Dawn                     2016-02-25    25.0 10000000  249900000
    ##  8 The Witcher 3: Wild Hunt      2015-05-18    40.0  5000000  199950000
    ##  9 The Elder Scrolls V: Skyrim   2011-11-10    20.0 10000000  199900000
    ## 10 Borderlands 2                 2012-09-17    20.0 10000000  199900000
    ## # ℹ 26,678 more rows
…
